Time,Position
0,0
0,0
0.01,0
0.02,0
0.03,0
0.04,0
0.05,0
0.06,0
0.07,0
0.08,0
0.09,0
0.1,0
0.11,0
0.12,0
0.13,0
0.14,0
0.15,0
0.16,0
0.17,0
0.18,0
0.19,0
0.2,0
0.21,0
0.22,0
0.23,0
0.24,0
0.25,0
0.26,0
0.27,0
0.28,0
0.29,0
0.3,0
0.31,0
0.32,0
0.33,0
0.34,0
0.35,0
0.36,0
0.37,0
0.38,0
0.39,0
0.4,0
0.41,0
0.42,0
0.43,0
0.44,0
0.45,0
0.46,0
0.47,0
0.48,0
0.49,0
0.5,0
0.51,0
0.52,0
0.53,0
0.54,0
0.55,0
0.56,0
0.57,0
0.58,0
0.59,0
0.6,0
0.61,0
0.62,0
0.63,0
0.64,0
0.65,0
0.66,0
0.67,0
0.68,0
0.69,0
0.7,0
0.71,0
0.72,0
0.73,0
0.74,0
0.75,0
0.76,0
0.77,0
0.78,0
0.79,0
0.8,0
0.81,0
0.82,0
0.83,0
0.84,0
0.85,0
0.86,0
0.87,0
0.88,0
0.89,0
0.9,0
0.91,0
0.92,0
0.93,0
0.94,0
0.95,0
0.96,0
0.97,0
0.98,0
0.99,0
1,0
1.01,0
1.02,0
1.03,0
1.04,0
1.05,0
1.06,0
1.07,0
1.08,0
1.09,1
1.1,2
1.11,4
1.12,5
1.13,5
1.14,7
1.15,9
1.16,11
1.17,13
1.18,16
1.19,19
1.2,24
1.21,31
1.22,40
1.23,54
1.24,74
1.25,100
1.26,128
1.27,158
1.28,190
1.29,219
1.3,247
1.31,276
1.32,305
1.33,332
1.34,360
1.35,385
1.36,405
1.37,426
1.38,450
1.39,475
1.4,500
1.41,529
1.42,559
1.43,588
1.44,619
1.45,654
1.46,691
1.47,732
1.48,773
1.49,816
1.5,863
1.51,914
1.52,965
1.53,1017
1.54,1069
1.55,1120
1.56,1166
1.57,1210
1.58,1251
1.59,1285
1.6,1308
1.61,1321
1.62,1327
1.63,1327
1.64,1327
1.65,1326
1.66,1326
1.67,1326
1.68,1326
1.69,1326
1.7,1326
1.71,1326
1.72,1326
1.73,1326
1.74,1326
1.75,1326
1.76,1326
1.77,1326
1.78,1326
1.79,1327
1.8,1327
1.81,1327
1.82,1327
1.83,1327
1.84,1327
1.85,1327
1.86,1328
1.87,1329
1.88,1331
1.89,1335
1.9,1342
1.91,1355
1.92,1371
1.93,1391
1.94,1415
1.95,1446
1.96,1480
1.97,1514
1.98,1554
1.99,1599
2,1648
2.01,1697
2.02,1749
2.03,1803
2.04,1855
2.05,1907
2.06,1960
2.07,2013
2.08,2064
2.09,2115
2.1,2167
2.11,2219
2.12,2270
2.13,2321
2.14,2373
2.15,2422
2.16,2470
2.17,2519
2.18,2566
2.19,2609
2.2,2650
2.21,2685
2.22,2716
2.23,2739
2.24,2749
2.25,2749
2.26,2745
2.27,2741
2.28,2736
2.29,2730
2.3,2725
2.31,2721
2.32,2719
2.33,2719
2.34,2719
2.35,2719
2.36,2719
2.37,2719
2.38,2719
2.39,2719
2.4,2719
2.41,2719
2.42,2719
2.43,2720
2.44,2720
2.45,2720
2.46,2720
2.47,2721
2.48,2721
2.49,2723
2.5,2724
2.51,2725
2.52,2726
2.53,2729
2.54,2733
2.55,2737
2.56,2743
2.57,2751
2.58,2762
2.59,2780
2.6,2805
2.61,2837
2.62,2874
2.63,2916
2.64,2959
2.65,3007
2.66,3059
2.67,3114
2.68,3171
2.69,3232
2.7,3295
2.71,3359
2.72,3425
2.73,3492
2.74,3561
2.75,3632
2.76,3702
2.77,3773
2.78,3847
2.79,3920
2.8,3991
2.81,4060
2.82,4123
2.83,4180
2.84,4225
2.85,4261
2.86,4286
2.87,4300
2.88,4304
2.89,4302
2.9,4301
2.91,4301
2.92,4301
2.93,4301
2.94,4301
2.95,4301
2.96,4301
2.97,4301
2.98,4301
2.99,4301
3,4301
3.01,4301
3.02,4301
3.03,4301
3.04,4301
3.05,4301
3.06,4301
3.07,4301
3.08,4301
3.09,4301
3.1,4301
3.11,4301
3.12,4301
3.13,4301
3.14,4301
3.15,4301
3.16,4301
3.17,4302
3.18,4303
3.19,4305
3.2,4309
3.21,4317
3.22,4329
3.23,4347
3.24,4368
3.25,4389
3.26,4413
3.27,4445
3.28,4483
3.29,4527
3.3,4575
3.31,4628
3.32,4686
3.33,4747
3.34,4810
3.35,4877
3.36,4944
3.37,5011
3.38,5080
3.39,5148
3.4,5219
3.41,5292
3.42,5363
3.43,5436
3.44,5506
3.45,5574
3.46,5640
3.47,5700
3.48,5756
3.49,5805
3.5,5842
3.51,5867
3.52,5883
3.53,5889
3.54,5888
3.55,5886
3.56,5886
3.57,5886
3.58,5886
3.59,5885
3.6,5884
3.61,5881
3.62,5878
3.63,5873
3.64,5868
3.65,5862
3.66,5853
3.67,5841
3.68,5823
3.69,5798
3.7,5769
3.71,5739
3.72,5706
3.73,5673
3.74,5639
3.75,5600
3.76,5559
3.77,5518
3.78,5476
3.79,5432
3.8,5385
3.81,5337
3.82,5288
3.83,5235
3.84,5180
3.85,5125
3.86,5068
3.87,5009
3.88,4949
3.89,4888
3.9,4826
3.91,4763
3.92,4702
3.93,4642
3.94,4582
3.95,4525
3.96,4470
3.97,4420
3.98,4375
3.99,4331
4,4293
4.01,4262
4.02,4240
4.03,4228
4.04,4227
4.05,4231
4.06,4235
4.07,4238
4.08,4239
4.09,4240
4.1,4240
4.11,4240
4.12,4240
4.13,4240
4.14,4240
4.15,4240
4.16,4240
4.17,4240
4.18,4240
4.19,4240
4.2,4240
4.21,4240
4.22,4240
4.23,4240
4.24,4239
4.25,4239
4.26,4239
4.27,4239
4.28,4239
4.29,4239
4.3,4238
4.31,4237
4.32,4236
4.33,4236
4.34,4235
4.35,4233
4.36,4231
4.37,4228
4.38,4222
4.39,4214
4.4,4199
4.41,4177
4.42,4147
4.43,4112
4.44,4074
4.45,4032
4.46,3985
4.47,3931
4.48,3873
4.49,3811
4.5,3745
4.51,3676
4.52,3604
4.53,3532
4.54,3460
4.55,3388
4.56,3318
4.57,3250
4.58,3183
4.59,3119
4.6,3057
4.61,3000
4.62,2948
4.63,2902
4.64,2862
4.65,2832
4.66,2811
4.67,2799
4.68,2797
4.69,2800
4.7,2802
4.71,2802
4.72,2802
4.73,2802
4.74,2802
4.75,2802
4.76,2802
4.77,2802
4.78,2802
4.79,2802
4.8,2802
4.81,2802
4.82,2802
4.83,2802
4.84,2802
4.85,2801
4.86,2801
4.87,2801
4.88,2800
4.89,2799
4.9,2798
4.91,2796
4.92,2794
4.93,2791
4.94,2787
4.95,2782
4.96,2774
4.97,2764
4.98,2750
4.99,2727
5,2695
5.01,2660
5.02,2620
5.03,2577
5.04,2530
5.05,2478
5.06,2424
5.07,2368
5.08,2309
5.09,2247
5.1,2185
5.11,2120
5.12,2054
5.13,1989
5.14,1922
5.15,1855
5.16,1788
5.17,1722
5.18,1660
5.19,1602
5.2,1548
5.21,1500
5.22,1458
5.23,1420
5.24,1390
5.25,1370
5.26,1359
5.27,1356
5.28,1359
5.29,1361
5.3,1361
5.31,1361
5.32,1361
5.33,1361
5.34,1361
5.35,1361
5.36,1361
5.37,1361
5.38,1361
5.39,1361
5.4,1361
5.41,1361
5.42,1361
5.43,1361
5.44,1360
5.45,1360
5.46,1360
5.47,1359
5.48,1359
5.49,1358
5.5,1357
5.51,1355
5.52,1354
5.53,1351
5.54,1347
5.55,1341
5.56,1334
5.57,1325
5.58,1314
5.59,1298
5.6,1275
5.61,1242
5.62,1205
5.63,1163
5.64,1116
5.65,1062
5.66,1002
5.67,937
5.68,867
5.69,794
5.7,720
5.71,645
5.72,572
5.73,500
5.74,431
5.75,367
5.76,306
5.77,251
5.78,203
5.79,159
5.8,123
5.81,94
5.82,74
5.83,63
5.84,62
5.85,66
5.86,69
5.87,69
5.88,69
5.89,69
5.9,69
5.91,69
5.92,70
5.93,74
5.94,80
5.95,89
5.96,100
5.97,114
5.98,132
5.99,157
6,187
6.01,219
6.02,256
6.03,300
6.04,348
6.05,399
6.06,453
6.07,512
6.08,572
6.09,634
6.1,697
6.11,763
6.12,829
6.13,896
6.14,962
6.15,1028
6.16,1094
6.17,1157
6.18,1217
6.19,1275
6.2,1324
6.21,1367
6.22,1402
6.23,1432
6.24,1453
6.25,1461
6.26,1459
6.27,1453
6.28,1447
6.29,1441
6.3,1437
6.31,1436
6.32,1436
6.33,1436
6.34,1436
6.35,1436
6.36,1436
6.37,1436
6.38,1436
6.39,1436
6.4,1436
6.41,1436
6.42,1436
6.43,1436
6.44,1437
6.45,1437
6.46,1439
6.47,1441
6.48,1445
6.49,1448
6.5,1452
6.51,1457
6.52,1465
6.53,1476
6.54,1493
6.55,1519
6.56,1555
6.57,1598
6.58,1649
6.59,1704
6.6,1766
6.61,1831
6.62,1898
6.63,1965
6.64,2032
6.65,2094
6.66,2154
6.67,2208
6.68,2255
6.69,2296
6.7,2329
6.71,2353
6.72,2366
6.73,2365
6.74,2358
6.75,2348
6.76,2337
6.77,2327
6.78,2320
6.79,2314
6.8,2309
6.81,2304
6.82,2297
6.83,2288
6.84,2275
6.85,2260
6.86,2243
6.87,2226
6.88,2210
6.89,2190
6.9,2164
6.91,2136
6.92,2108
6.93,2079
6.94,2049
6.95,2019
6.96,1986
6.97,1949
6.98,1912
6.99,1874
7,1837
7.01,1796
7.02,1754
7.03,1713
7.04,1671
7.05,1629
7.06,1583
7.07,1538
7.08,1493
7.09,1447
7.1,1398
7.11,1349
7.12,1300
7.13,1249
7.14,1198
7.15,1149
7.16,1103
7.17,1059
7.18,1019
7.19,984
7.2,956
7.21,936
7.22,921
7.23,910
7.24,902
7.25,898
7.26,897
7.27,897
7.28,897
7.29,897
7.3,897
7.31,897
7.32,897
7.33,897
7.34,897
7.35,897
7.36,897
7.37,897
7.38,897
7.39,897
7.4,897
7.41,897
7.42,897
7.43,895
7.44,891
7.45,884
7.46,876
7.47,866
7.48,857
7.49,847
7.5,833
7.51,814
7.52,791
7.53,764
7.54,734
7.55,697
7.56,655
7.57,611
7.58,565
7.59,515
7.6,463
7.61,410
7.62,356
7.63,301
7.64,248
7.65,200
7.66,153
7.67,110
7.68,72
7.69,39
7.7,10
7.71,-15
7.72,-38
7.73,-51
7.74,-55
7.75,-52
7.76,-46
7.77,-37
7.78,-24
7.79,-9
7.8,6
7.81,20
7.82,36
7.83,56
7.84,83
7.85,116
7.86,153
7.87,194
7.88,236
7.89,284
7.9,334
7.91,388
7.92,444
7.93,504
7.94,567
7.95,632
7.96,702
7.97,773
7.98,844
7.99,916
8,986
8.01,1052
8.02,1112
8.03,1163
8.04,1205
8.05,1237
8.06,1260
8.07,1269
8.08,1266
8.09,1259
8.1,1250
8.11,1244
8.12,1241
8.13,1241
8.14,1241
8.15,1241
8.16,1241
8.17,1241
8.18,1241
8.19,1241
8.2,1241
8.21,1241
8.22,1241
8.23,1241
8.24,1241
8.25,1241
8.26,1241
8.27,1242
8.28,1245
8.29,1247
8.3,1250
8.31,1254
8.32,1259
8.33,1265
8.34,1272
8.35,1282
8.36,1297
8.37,1320
8.38,1353
8.39,1395
8.4,1446
8.41,1504
8.42,1570
8.43,1645
8.44,1726
8.45,1813
8.46,1906
8.47,2004
8.48,2105
8.49,2207
8.5,2311
8.51,2413
8.52,2510
8.53,2598
8.54,2674
8.55,2739
8.56,2791
8.57,2833
8.58,2865
8.59,2886
8.6,2894
8.61,2891
8.62,2884
8.63,2879
8.64,2877
8.65,2877
8.66,2877
8.67,2877
8.68,2877
8.69,2877
8.7,2877
8.71,2877
8.72,2877
8.73,2877
8.74,2877
8.75,2877
8.76,2877
8.77,2877
8.78,2878
8.79,2881
8.8,2883
8.81,2886
8.82,2889
8.83,2893
8.84,2898
8.85,2904
8.86,2912
8.87,2924
8.88,2943
8.89,2971
8.9,3008
8.91,3054
8.92,3107
8.93,3168
8.94,3239
8.95,3319
8.96,3409
8.97,3507
8.98,3617
8.99,3735
9,3858
9.01,3985
9.02,4111
9.03,4230
9.04,4339
9.05,4435
9.06,4516
9.07,4583
9.08,4637
9.09,4677
9.1,4705
9.11,4717
9.12,4714
9.13,4704
9.14,4693
9.15,4685
9.16,4683
9.17,4685
9.18,4685
9.19,4685
9.2,4685
9.21,4685
9.22,4685
9.23,4685
9.24,4685
9.25,4685
9.26,4685
9.27,4685
9.28,4685
9.29,4685
9.3,4685
9.31,4686
9.32,4687
9.33,4689
9.34,4691
9.35,4695
9.36,4702
9.37,4709
9.38,4718
9.39,4728
9.4,4743
9.41,4766
9.42,4800
9.43,4842
9.44,4895
9.45,4954
9.46,5022
9.47,5099
9.48,5185
9.49,5282
9.5,5388
9.51,5504
9.52,5628
9.53,5755
9.54,5883
9.55,6005
9.56,6114
9.57,6211
9.58,6295
9.59,6365
9.6,6423
9.61,6470
9.62,6506
9.63,6532
9.64,6544
9.65,6543
9.66,6537
9.67,6530
9.68,6523
9.69,6518
9.7,6515
9.71,6515
9.72,6515
9.73,6515
9.74,6515
9.75,6515
9.76,6515
9.77,6515
9.78,6515
9.79,6515
9.8,6516
9.81,6516
9.82,6517
9.83,6519
9.84,6521
9.85,6523
9.86,6526
9.87,6531
9.88,6538
9.89,6549
9.9,6565
9.91,6591
9.92,6629
9.93,6676
9.94,6734
9.95,6799
9.96,6872
9.97,6951
9.98,7036
9.99,7126
10,7225
10.01,7332
10.02,7445
10.03,7564
10.04,7687
10.05,7811
10.06,7933
10.07,8046
10.08,8146
10.09,8232
10.1,8304
10.11,8362
10.12,8406
10.13,8440
10.14,8462
10.15,8475
10.16,8481
10.17,8481
10.18,8481
10.19,8481
10.2,8481
10.21,8481
10.22,8481
10.23,8481
10.24,8481
10.25,8481
10.26,8481
10.27,8481
10.28,8481
10.29,8481
10.3,8481
10.31,8481
10.32,8482
10.33,8483
10.34,8489
10.35,8498
10.36,8512
10.37,8529
10.38,8547
10.39,8572
10.4,8607
10.41,8651
10.42,8707
10.43,8771
10.44,8847
10.45,8933
10.46,9023
10.47,9109
10.48,9189
10.49,9259
10.5,9314
10.51,9359
10.52,9390
10.53,9410
10.54,9418
10.55,9416
10.56,9411
10.57,9408
10.58,9406
10.59,9406
10.6,9406
10.61,9406
10.62,9407
10.63,9407
10.64,9407
10.65,9407
10.66,9407
10.67,9407
10.68,9407
10.69,9407
10.7,9407
10.71,9407
10.72,9407
10.73,9407
10.74,9407
10.75,9407
10.76,9407
10.77,9407
10.78,9407
10.79,9408
10.8,9411
10.81,9413
10.82,9416
10.83,9420
10.84,9425
10.85,9430
10.86,9437
10.87,9447
10.88,9461
10.89,9483
10.9,9518
10.91,9564
10.92,9624
10.93,9695
10.94,9778
10.95,9872
10.96,9976
10.97,10085
10.98,10201
10.99,10322
11,10446
11.01,10574
11.02,10702
11.03,10825
11.04,10937
11.05,11032
11.06,11108
11.07,11166
11.08,11210
11.09,11240
11.1,11255
11.11,11254
11.12,11247
11.13,11237
11.14,11228
11.15,11222
11.16,11221
11.17,11222
11.18,11222
11.19,11222
11.2,11222
11.21,11222
11.22,11222
11.23,11222
11.24,11222
11.25,11222
11.26,11222
11.27,11221
11.28,11221
11.29,11221
11.3,11220
11.31,11219
11.32,11215
11.33,11209
11.34,11199
11.35,11185
11.36,11165
11.37,11136
11.38,11102
11.39,11059
11.4,11005
11.41,10943
11.42,10872
11.43,10790
11.44,10699
11.45,10598
11.46,10490
11.47,10376
11.48,10255
11.49,10130
11.5,10004
11.51,9879
11.52,9757
11.53,9644
11.54,9540
11.55,9448
11.56,9367
11.57,9295
11.58,9233
11.59,9179
11.6,9134
11.61,9099
11.62,9071
11.63,9047
11.64,9031
11.65,9026
11.66,9028
11.67,9032
11.68,9035
11.69,9036
11.7,9036
11.71,9036
11.72,9036
11.73,9036
11.74,9036
11.75,9036
11.76,9036
11.77,9036
11.78,9036
11.79,9036
11.8,9035
11.81,9034
11.82,9032
11.83,9028
11.84,9023
11.85,9015
11.86,9002
11.87,8982
11.88,8955
11.89,8922
11.9,8880
11.91,8827
11.92,8765
11.93,8696
11.94,8618
11.95,8533
11.96,8442
11.97,8346
11.98,8245
11.99,8143
12,8037
12.01,7932
12.02,7829
12.03,7729
12.04,7635
12.05,7552
12.06,7480
12.07,7418
12.08,7367
12.09,7326
12.1,7296
12.11,7275
12.12,7259
12.13,7245
12.14,7237
12.15,7236
12.16,7238
12.17,7238
12.18,7238
12.19,7238
12.2,7238
12.21,7238
12.22,7238
12.23,7238
12.24,7238
12.25,7238
12.26,7238
12.27,7238
12.28,7238
12.29,7238
12.3,7237
12.31,7236
12.32,7235
12.33,7234
12.34,7233
12.35,7230
12.36,7226
12.37,7221
12.38,7213
12.39,7202
12.4,7185
12.41,7162
12.42,7133
12.43,7101
12.44,7061
12.45,7017
12.46,6968
12.47,6918
12.48,6863
12.49,6806
12.5,6749
12.51,6690
12.52,6629
12.53,6568
12.54,6507
12.55,6445
12.56,6385
12.57,6328
12.58,6274
12.59,6226
12.6,6186
12.61,6151
12.62,6123
12.63,6104
12.64,6095
12.65,6093
12.66,6095
12.67,6096
12.68,6097
12.69,6097
12.7,6097
12.71,6097
12.72,6097
12.73,6097
12.74,6097
12.75,6097
12.76,6097
12.77,6097
12.78,6097
12.79,6096
12.8,6096
12.81,6095
12.82,6094
12.83,6092
12.84,6088
12.85,6081
12.86,6067
12.87,6049
12.88,6025
12.89,5995
12.9,5953
12.91,5905
12.92,5850
12.93,5788
12.94,5722
12.95,5651
12.96,5575
12.97,5496
12.98,5415
12.99,5330
13,5241
13.01,5148
13.02,5054
13.03,4959
13.04,4867
13.05,4779
13.06,4696
13.07,4619
13.08,4549
13.09,4486
13.1,4434
13.11,4393
13.12,4362
13.13,4338
13.14,4321
13.15,4315
13.16,4318
13.17,4321
13.18,4324
13.19,4324
13.2,4324
13.21,4324
13.22,4324
13.23,4324
13.24,4324
13.25,4324
13.26,4324
13.27,4324
13.28,4324
13.29,4324
13.3,4324
13.31,4324
13.32,4324
13.33,4324
13.34,4324
13.35,4323
13.36,4322
13.37,4320
13.38,4317
13.39,4312
13.4,4306
13.41,4298
13.42,4285
13.43,4264
13.44,4237
13.45,4204
13.46,4162
13.47,4111
13.48,4053
13.49,3990
13.5,3919
13.51,3841
13.52,3758
13.53,3668
13.54,3576
13.55,3481
13.56,3385
13.57,3292
13.58,3199
13.59,3108
13.6,3019
13.61,2930
13.62,2844
13.63,2760
13.64,2679
13.65,2603
13.66,2532
13.67,2467
13.68,2410
13.69,2363
13.7,2321
13.71,2289
13.72,2264
13.73,2247
13.74,2240
13.75,2241
13.76,2245
13.77,2247
13.78,2248
13.79,2248
13.8,2248
13.81,2248
13.82,2248
13.83,2248
13.84,2248
13.85,2248
13.86,2248
13.87,2248
13.88,2248
13.89,2248
13.9,2248
13.91,2248
13.92,2248
13.93,2248
13.94,2248
13.95,2247
13.96,2244
13.97,2237
13.98,2223
13.99,2195
14,2150
14.01,2090
14.02,2022
14.03,1944
14.04,1861
14.05,1774
14.06,1684
14.07,1591
14.08,1495
14.09,1395
14.1,1294
14.11,1189
14.12,1084
14.13,981
14.14,880
14.15,784
14.16,697
14.17,620
14.18,555
14.19,498
14.2,454
14.21,421
14.22,402
14.23,394
14.24,395
14.25,398
14.26,400
14.27,401
14.28,402
14.29,402
14.3,402
14.31,402
14.32,402
14.33,402
14.34,402
14.35,402
14.36,402
14.37,402
14.38,402
14.39,402
14.4,402
14.41,402
14.42,402
14.43,402
14.44,402
14.45,402
14.46,402
14.47,401
14.48,400
14.49,398
14.5,394
14.51,386
14.52,371
14.53,348
14.54,319
14.55,287
14.56,248
14.57,204
14.58,151
14.59,90
14.6,23
14.61,-50
14.62,-130
14.63,-216
14.64,-309
14.65,-407
14.66,-510
14.67,-620
14.68,-735
14.69,-853
14.7,-971
14.71,-1086
14.72,-1195
14.73,-1293
14.74,-1379
14.75,-1452
14.76,-1514
14.77,-1567
14.78,-1609
14.79,-1644
14.8,-1673
14.81,-1691
14.82,-1701
14.83,-1704
14.84,-1703
14.85,-1702
14.86,-1702
14.87,-1702
14.88,-1702
14.89,-1702
14.9,-1702
14.91,-1702
14.92,-1702
14.93,-1702
14.94,-1702
14.95,-1702
14.96,-1702
14.97,-1702
14.98,-1702
14.99,-1702
15,-1702
15.01,-1703
15.02,-1703
15.03,-1704
15.04,-1707
15.05,-1715
15.06,-1729
15.07,-1751
15.08,-1779
15.09,-1817
15.1,-1867
15.11,-1926
15.12,-1993
15.13,-2068
15.14,-2149
15.15,-2234
15.16,-2323
15.17,-2414
15.18,-2505
15.19,-2601
15.2,-2699
15.21,-2798
15.22,-2896
15.23,-2990
15.24,-3077
15.25,-3154
15.26,-3218
15.27,-3269
15.28,-3310
15.29,-3337
15.3,-3355
15.31,-3363
15.32,-3363
15.33,-3360
15.34,-3359
15.35,-3359
15.36,-3359
15.37,-3359
15.38,-3359
15.39,-3359
15.4,-3359
15.41,-3359
15.42,-3359
15.43,-3359
15.44,-3359
15.45,-3359
15.46,-3359
15.47,-3359
15.48,-3359
15.49,-3359
15.5,-3359
15.51,-3359
15.52,-3360
15.53,-3360
15.54,-3361
15.55,-3362
15.56,-3365
15.57,-3370
15.58,-3378
15.59,-3391
15.6,-3410
15.61,-3440
15.62,-3486
15.63,-3541
15.64,-3606
15.65,-3680
15.66,-3761
15.67,-3845
15.68,-3933
15.69,-4023
15.7,-4116
15.71,-4211
15.72,-4311
15.73,-4411
15.74,-4512
15.75,-4611
15.76,-4705
15.77,-4791
15.78,-4867
15.79,-4934
15.8,-4992
15.81,-5041
15.82,-5083
15.83,-5120
15.84,-5147
15.85,-5167
15.86,-5179
15.87,-5183
15.88,-5181
15.89,-5179
15.9,-5179
15.91,-5179
15.92,-5179
15.93,-5179
15.94,-5179
15.95,-5179
15.96,-5179
15.97,-5179
15.98,-5179
15.99,-5179
16,-5179
16.01,-5179
16.02,-5179
16.03,-5180
16.04,-5181
16.05,-5184
16.06,-5188
16.07,-5195
16.08,-5205
16.09,-5220
16.1,-5243
16.11,-5279
16.12,-5329
16.13,-5389
16.14,-5460
16.15,-5543
16.16,-5633
16.17,-5730
16.18,-5830
16.19,-5934
16.2,-6041
16.21,-6149
16.22,-6255
16.23,-6356
16.24,-6449
16.25,-6529
16.26,-6599
16.27,-6658
16.28,-6707
16.29,-6749
16.3,-6782
16.31,-6806
16.32,-6823
16.33,-6830
16.34,-6828
16.35,-6824
16.36,-6822
16.37,-6822
16.38,-6822
16.39,-6822
16.4,-6822
16.41,-6822
16.42,-6822
16.43,-6822
16.44,-6822
16.45,-6822
16.46,-6822
16.47,-6822
16.48,-6822
16.49,-6822
16.5,-6822
16.51,-6822
16.52,-6823
16.53,-6824
16.54,-6827
16.55,-6831
16.56,-6838
16.57,-6850
16.58,-6868
16.59,-6896
16.6,-6937
16.61,-6986
16.62,-7044
16.63,-7111
16.64,-7187
16.65,-7270
16.66,-7360
16.67,-7453
16.68,-7552
16.69,-7655
16.7,-7760
16.71,-7867
16.72,-7973
16.73,-8073
16.74,-8165
16.75,-8247
16.76,-8317
16.77,-8377
16.78,-8427
16.79,-8467
16.8,-8495
16.81,-8514
16.82,-8529
16.83,-8539
16.84,-8543
16.85,-8542
16.86,-8541
16.87,-8541
16.88,-8541
16.89,-8541
16.9,-8541
16.91,-8541
16.92,-8541
16.93,-8541
16.94,-8541
16.95,-8542
16.96,-8542
16.97,-8542
16.98,-8542
16.99,-8543
17,-8546
17.01,-8551
17.02,-8561
17.03,-8575
17.04,-8594
17.05,-8622
17.06,-8658
17.07,-8702
17.08,-8757
17.09,-8821
17.1,-8891
17.11,-8969
17.12,-9052
17.13,-9141
17.14,-9234
17.15,-9328
17.16,-9425
17.17,-9523
17.18,-9616
17.19,-9704
17.2,-9783
17.21,-9854
17.22,-9916
17.23,-9968
17.24,-10015
17.25,-10054
17.26,-10085
17.27,-10107
17.28,-10119
17.29,-10122
17.3,-10120
17.31,-10117
17.32,-10116
17.33,-10116
17.34,-10116
17.35,-10116
17.36,-10116
17.37,-10116
17.38,-10116
17.39,-10116
17.4,-10116
17.41,-10116
17.42,-10116
17.43,-10116
17.44,-10116
17.45,-10117
17.46,-10118
17.47,-10119
17.48,-10121
17.49,-10123
17.5,-10128
17.51,-10138
17.52,-10156
17.53,-10184
17.54,-10220
17.55,-10262
17.56,-10311
17.57,-10369
17.58,-10436
17.59,-10511
17.6,-10595
17.61,-10687
17.62,-10789
17.63,-10897
17.64,-11009
17.65,-11123
17.66,-11237
17.67,-11344
17.68,-11445
17.69,-11538
17.7,-11619
17.71,-11690
17.72,-11751
17.73,-11803
17.74,-11849
17.75,-11886
17.76,-11915
17.77,-11934
17.78,-11944
17.79,-11948
17.8,-11948
17.81,-11948
17.82,-11948
17.83,-11948
17.84,-11948
17.85,-11948
17.86,-11948
17.87,-11948
17.88,-11948
17.89,-11948
17.9,-11948
17.91,-11948
17.92,-11948
17.93,-11949
17.94,-11952
17.95,-11961
17.96,-11979
17.97,-12008
17.98,-12043
17.99,-12086
18,-12136
18.01,-12198
18.02,-12269
18.03,-12347
18.04,-12432
18.05,-12524
18.06,-12624
18.07,-12727
18.08,-12835
18.09,-12943
18.1,-13046
18.11,-13143
18.12,-13231
18.13,-13311
18.14,-13381
18.15,-13444
18.16,-13498
18.17,-13543
18.18,-13578
18.19,-13606
18.2,-13630
18.21,-13646
18.22,-13652
18.23,-13650
18.24,-13646
18.25,-13643
18.26,-13642
18.27,-13642
18.28,-13642
18.29,-13642
18.3,-13642
18.31,-13642
18.32,-13642
18.33,-13642
18.34,-13642
18.35,-13642
18.36,-13642
18.37,-13643
18.38,-13644
18.39,-13646
18.4,-13650
18.41,-13657
18.42,-13668
18.43,-13686
18.44,-13713
18.45,-13749
18.46,-13794
18.47,-13849
18.48,-13912
18.49,-13982
18.5,-14060
18.51,-14143
18.52,-14233
18.53,-14327
18.54,-14425
18.55,-14528
18.56,-14634
18.57,-14737
18.58,-14837
18.59,-14929
18.6,-15010
18.61,-15083
18.62,-15148
18.63,-15205
18.64,-15253
18.65,-15295
18.66,-15327
18.67,-15352
18.68,-15367
18.69,-15371
18.7,-15367
18.71,-15363
18.72,-15359
18.73,-15356
18.74,-15355
18.75,-15355
18.76,-15355
18.77,-15355
18.78,-15355
18.79,-15355
18.8,-15355
18.81,-15355
18.82,-15356
18.83,-15356
18.84,-15358
18.85,-15363
18.86,-15373
18.87,-15390
18.88,-15417
18.89,-15458
18.9,-15509
18.91,-15570
18.92,-15639
18.93,-15717
18.94,-15800
18.95,-15886
18.96,-15976
18.97,-16069
18.98,-16164
18.99,-16262
19,-16363
19.01,-16466
19.02,-16569
19.03,-16672
19.04,-16770
19.05,-16859
19.06,-16939
19.07,-17008
19.08,-17067
19.09,-17120
19.1,-17164
19.11,-17198
19.12,-17223
19.13,-17243
19.14,-17258
19.15,-17266
19.16,-17266
19.17,-17263
19.18,-17262
19.19,-17262
19.2,-17262
19.21,-17262
19.22,-17262
19.23,-17262
19.24,-17262
19.25,-17262
19.26,-17262
19.27,-17262
19.28,-17262
19.29,-17262
19.3,-17263
19.31,-17264
19.32,-17267
19.33,-17272
19.34,-17282
19.35,-17298
19.36,-17323
19.37,-17358
19.38,-17405
19.39,-17465
19.4,-17537
19.41,-17619
19.42,-17708
19.43,-17802
19.44,-17901
19.45,-18005
19.46,-18116
19.47,-18231
19.48,-18350
19.49,-18468
19.5,-18580
19.51,-18684
19.52,-18777
19.53,-18857
19.54,-18929
19.55,-18990
19.56,-19041
19.57,-19088
19.58,-19127
19.59,-19157
19.6,-19178
19.61,-19188
19.62,-19188
19.63,-19185
19.64,-19183
19.65,-19181
19.66,-19180
19.67,-19179
19.68,-19177
19.69,-19176
19.7,-19175
19.71,-19175
19.72,-19175
19.73,-19175
19.74,-19175
19.75,-19175
19.76,-19175
19.77,-19175
19.78,-19175
19.79,-19177
19.8,-19181
19.81,-19191
19.82,-19208
19.83,-19240
19.84,-19289
19.85,-19353
19.86,-19429
19.87,-19520
19.88,-19620
19.89,-19729
19.9,-19845
19.91,-19969
19.92,-20100
19.93,-20234
19.94,-20370
19.95,-20501
19.96,-20621
19.97,-20729
19.98,-20822
19.99,-20901
20,-20967
20.01,-21022
20.02,-21066
20.03,-21101
20.04,-21126
20.05,-21141
20.06,-21149
20.07,-21149
20.08,-21148
20.09,-21147
20.1,-21147
20.11,-21147
20.12,-21147
20.13,-21147
20.14,-21147
20.15,-21147
20.16,-21147
20.17,-21147
20.18,-21147
20.19,-21147
20.2,-21147
20.21,-21148
20.22,-21148
20.23,-21148
20.24,-21149
20.25,-21152
20.26,-21157
20.27,-21168
20.28,-21185
20.29,-21213
20.3,-21259
20.31,-21320
20.32,-21396
20.33,-21483
20.34,-21581
20.35,-21689
20.36,-21802
20.37,-21923
20.38,-22050
20.39,-22181
20.4,-22312
20.41,-22441
20.42,-22559
20.43,-22667
20.44,-22765
20.45,-22851
20.46,-22927
20.47,-22994
20.48,-23053
20.49,-23105
20.5,-23149
20.51,-23184
20.52,-23209
20.53,-23229
20.54,-23244
20.55,-23253
20.56,-23254
20.57,-23252
20.58,-23251
20.59,-23251
20.6,-23251
20.61,-23251
20.62,-23251
20.63,-23251
20.64,-23251
20.65,-23251
20.66,-23251
20.67,-23251
20.68,-23251
20.69,-23251
20.7,-23252
20.71,-23253
20.72,-23255
20.73,-23259
20.74,-23267
20.75,-23280
20.76,-23303
20.77,-23337
20.78,-23383
20.79,-23442
20.8,-23512
20.81,-23588
20.82,-23672
20.83,-23761
20.84,-23857
20.85,-23959
20.86,-24069
20.87,-24181
20.88,-24294
20.89,-24402
20.9,-24503
20.91,-24594
20.92,-24675
20.93,-24746
20.94,-24806
20.95,-24853
20.96,-24893
20.97,-24921
20.98,-24939
20.99,-24948
21,-24949
21.01,-24947
21.02,-24947
21.03,-24947
21.04,-24947
21.05,-24947
21.06,-24947
21.07,-24947
21.08,-24947
21.09,-24947
21.1,-24947
21.11,-24947
21.12,-24947
21.13,-24947
21.14,-24947
21.15,-24947
21.16,-24947
21.17,-24947
21.18,-24947
21.19,-24948
21.2,-24949
21.21,-24951
21.22,-24955
21.23,-24962
21.24,-24974
21.25,-24991
21.26,-25013
21.27,-25047
21.28,-25093
21.29,-25148
21.3,-25210
21.31,-25280
21.32,-25356
21.33,-25436
21.34,-25521
21.35,-25608
21.36,-25699
21.37,-25791
21.38,-25882
21.39,-25973
21.4,-26062
21.41,-26146
21.42,-26226
21.43,-26298
21.44,-26362
21.45,-26417
21.46,-26460
21.47,-26493
21.48,-26521
21.49,-26539
21.5,-26546
21.51,-26544
21.52,-26539
21.53,-26535
21.54,-26533
21.55,-26533
21.56,-26533
21.57,-26533
21.58,-26533
21.59,-26533
21.6,-26533
21.61,-26533
21.62,-26533
21.63,-26533
21.64,-26533
21.65,-26533
21.66,-26533
21.67,-26533
21.68,-26533
21.69,-26533
21.7,-26533
21.71,-26533
21.72,-26533
21.73,-26533
21.74,-26535
21.75,-26537
21.76,-26542
21.77,-26550
21.78,-26564
21.79,-26587
21.8,-26618
21.81,-26656
21.82,-26705
21.83,-26764
21.84,-26830
21.85,-26902
21.86,-26980
21.87,-27061
21.88,-27145
21.89,-27229
21.9,-27313
21.91,-27397
21.92,-27482
21.93,-27566
21.94,-27653
21.95,-27740
21.96,-27826
21.97,-27910
21.98,-27989
21.99,-28060
22,-28121
22.01,-28175
22.02,-28218
22.03,-28253
22.04,-28276
22.05,-28291
22.06,-28301
22.07,-28307
22.08,-28309
22.09,-28308
22.1,-28308
22.11,-28308
22.12,-28308
22.13,-28308
22.14,-28308
22.15,-28308
22.16,-28308
22.17,-28308
22.18,-28308
22.19,-28308
22.2,-28308
22.21,-28308
22.22,-28308
22.23,-28309
22.24,-28312
22.25,-28320
22.26,-28333
22.27,-28352
22.28,-28377
22.29,-28413
22.3,-28459
22.31,-28519
22.32,-28591
22.33,-28671
22.34,-28761
22.35,-28857
22.36,-28959
22.37,-29067
22.38,-29180
22.39,-29294
22.4,-29411
22.41,-29525
22.42,-29633
22.43,-29733
22.44,-29823
22.45,-29904
22.46,-29975
22.47,-30036
22.48,-30085
22.49,-30127
22.5,-30163
22.51,-30188
22.52,-30204
22.53,-30213
22.54,-30214
22.55,-30212
22.56,-30210
22.57,-30210
22.58,-30210
22.59,-30210
22.6,-30210
22.61,-30210
22.62,-30210
22.63,-30210
22.64,-30210
22.65,-30210
22.66,-30210
22.67,-30210
22.68,-30210
22.69,-30210
22.7,-30210
22.71,-30211
22.72,-30212
22.73,-30213
22.74,-30215
22.75,-30219
22.76,-30225
22.77,-30236
22.78,-30251
22.79,-30272
22.8,-30304
22.81,-30350
22.82,-30407
22.83,-30476
22.84,-30558
22.85,-30649
22.86,-30752
22.87,-30862
22.88,-30979
22.89,-31099
22.9,-31219
22.91,-31335
22.92,-31443
22.93,-31541
22.94,-31626
22.95,-31702
22.96,-31767
22.97,-31825
22.98,-31875
22.99,-31916
23,-31951
23.01,-31980
23.02,-32000
23.03,-32011
23.04,-32016
23.05,-32015
23.06,-32014
23.07,-32014
23.08,-32014
23.09,-32014
23.1,-32014
23.11,-32014
23.12,-32014
23.13,-32014
23.14,-32014
23.15,-32014
23.16,-32014
23.17,-32014
23.18,-32014
23.19,-32014
23.2,-32015
23.21,-32015
23.22,-32016
23.23,-32017
23.24,-32021
23.25,-32028
23.26,-32041
23.27,-32061
23.28,-32088
23.29,-32127
23.3,-32180
23.31,-32243
23.32,-32314
23.33,-32393
23.34,-32477
23.35,-32568
23.36,-32661
23.37,-32760
23.38,-32863
23.39,-32970
23.4,-33080
23.41,-33191
23.42,-33300
23.43,-33401
23.44,-33491
23.45,-33571
23.46,-33640
23.47,-33701
23.48,-33753
23.49,-33798
23.5,-33835
23.51,-33864
23.52,-33884
23.53,-33894
23.54,-33896
23.55,-33894
23.56,-33892
23.57,-33892
23.58,-33892
23.59,-33892
23.6,-33892
23.61,-33892
23.62,-33892
23.63,-33892
23.64,-33892
23.65,-33892
23.66,-33892
23.67,-33892
23.68,-33892
23.69,-33892
23.7,-33893
23.71,-33895
23.72,-33898
23.73,-33907
23.74,-33925
23.75,-33956
23.76,-33996
23.77,-34045
23.78,-34102
23.79,-34170
23.8,-34244
23.81,-34324
23.82,-34406
23.83,-34489
23.84,-34573
23.85,-34655
23.86,-34737
23.87,-34818
23.88,-34901
23.89,-34982
23.9,-35062
23.91,-35141
23.92,-35214
23.93,-35281
23.94,-35339
23.95,-35386
23.96,-35426
23.97,-35456
23.98,-35476
23.99,-35489
24,-35493
24.01,-35490
24.02,-35487
24.03,-35487
24.04,-35487
24.05,-35487
24.06,-35487
24.07,-35487
24.08,-35487
24.09,-35487
24.1,-35487
24.11,-35487
24.12,-35487
24.13,-35487
24.14,-35487
24.15,-35487
24.16,-35487
24.17,-35487
24.18,-35487
24.19,-35488
24.2,-35490
24.21,-35494
24.22,-35501
24.23,-35511
24.24,-35527
24.25,-35551
24.26,-35589
24.27,-35638
24.28,-35696
24.29,-35764
24.3,-35840
24.31,-35923
24.32,-36012
24.33,-36106
24.34,-36205
24.35,-36307
24.36,-36413
24.37,-36520
24.38,-36624
24.39,-36724
24.4,-36815
24.41,-36896
24.42,-36966
24.43,-37026
24.44,-37080
24.45,-37125
24.46,-37161
24.47,-37188
24.48,-37210
24.49,-37227
24.5,-37234
24.51,-37233
24.52,-37229
24.53,-37227
24.54,-37226
24.55,-37226
24.56,-37226
24.57,-37226
24.58,-37226
24.59,-37226
24.6,-37226
24.61,-37226
24.62,-37226
24.63,-37226
24.64,-37226
24.65,-37226
24.66,-37226
24.67,-37227
24.68,-37227
24.69,-37228
24.7,-37231
24.71,-37236
24.72,-37246
24.73,-37264
24.74,-37293
24.75,-37336
24.76,-37391
24.77,-37460
24.78,-37538
24.79,-37625
24.8,-37717
24.81,-37815
24.82,-37917
24.83,-38024
24.84,-38133
24.85,-38247
24.86,-38362
24.87,-38472
24.88,-38578
24.89,-38673
24.9,-38756
24.91,-38825
24.92,-38884
24.93,-38933
24.94,-38971
24.95,-38999
24.96,-39024
24.97,-39044
24.98,-39055
24.99,-39056
25,-39053
25.01,-39051
25.02,-39050
25.03,-39050
25.04,-39050
25.05,-39050
25.06,-39050
25.07,-39050
25.08,-39050
25.09,-39050
25.1,-39050
25.11,-39050
25.12,-39050
25.13,-39050
25.14,-39050
25.15,-39050
25.16,-39050
25.17,-39050
25.18,-39050
25.19,-39052
25.2,-39056
25.21,-39063
25.22,-39078
25.23,-39105
25.24,-39145
25.25,-39196
25.26,-39262
25.27,-39342
25.28,-39434
25.29,-39537
25.3,-39650
25.31,-39773
25.32,-39904
25.33,-40040
25.34,-40173
25.35,-40301
25.36,-40419
25.37,-40524
25.38,-40615
25.39,-40694
25.4,-40763
25.41,-40822
25.42,-40875
25.43,-40920
25.44,-40957
25.45,-40984
25.46,-41005
25.47,-41023
25.48,-41036
25.49,-41042
25.5,-41040
25.51,-41038
25.52,-41038
25.53,-41038
25.54,-41038
25.55,-41038
25.56,-41038
25.57,-41038
25.58,-41038
25.59,-41038
25.6,-41038
25.61,-41038
25.62,-41038
25.63,-41038
25.64,-41038
25.65,-41038
25.66,-41039
25.67,-41041
25.68,-41044
25.69,-41052
25.7,-41065
25.71,-41087
25.72,-41123
25.73,-41172
25.74,-41237
25.75,-41317
25.76,-41410
25.77,-41515
25.78,-41628
25.79,-41750
25.8,-41877
25.81,-42005
25.82,-42129
25.83,-42250
25.84,-42362
25.85,-42460
25.86,-42545
25.87,-42615
25.88,-42673
25.89,-42722
25.9,-42762
25.91,-42792
25.92,-42813
25.93,-42830
25.94,-42843
25.95,-42849
25.96,-42849
25.97,-42846
25.98,-42846
25.99,-42846
26,-42846
26.01,-42846
26.02,-42846
26.03,-42846
26.04,-42846
26.05,-42846
26.06,-42846
26.07,-42846
26.08,-42846
26.09,-42846
26.1,-42846
26.11,-42846
26.12,-42846
26.13,-42846
26.14,-42846
26.15,-42848
26.16,-42850
26.17,-42852
26.18,-42857
26.19,-42864
26.2,-42877
26.21,-42897
26.22,-42931
26.23,-42977
26.24,-43038
26.25,-43112
26.26,-43196
26.27,-43291
26.28,-43393
26.29,-43505
26.3,-43624
26.31,-43750
26.32,-43878
26.33,-44007
26.34,-44129
26.35,-44239
26.36,-44337
26.37,-44423
26.38,-44499
26.39,-44564
26.4,-44619
26.41,-44667
26.42,-44708
26.43,-44740
26.44,-44765
26.45,-44778
26.46,-44782
26.47,-44779
26.48,-44775
26.49,-44774
26.5,-44773
26.51,-44773
26.52,-44773
26.53,-44773
26.54,-44773
26.55,-44773
26.56,-44773
26.57,-44773
26.58,-44773
26.59,-44773
26.6,-44773
26.61,-44773
26.62,-44773
26.63,-44773
26.64,-44773
26.65,-44774
26.66,-44776
26.67,-44780
26.68,-44787
26.69,-44803
26.7,-44831
26.71,-44873
26.72,-44926
26.73,-44991
26.74,-45070
26.75,-45159
26.76,-45259
26.77,-45369
26.78,-45486
26.79,-45608
26.8,-45726
26.81,-45835
26.82,-45929
26.83,-46007
26.84,-46070
26.85,-46124
26.86,-46167
26.87,-46200
26.88,-46222
26.89,-46231
26.9,-46230
26.91,-46226
26.92,-46221
26.93,-46218
26.94,-46216
26.95,-46215
26.96,-46215
26.97,-46215
26.98,-46215
26.99,-46215
27,-46215
27.01,-46215
27.02,-46215
27.03,-46215
27.04,-46215
27.05,-46215
27.06,-46215
27.07,-46215
27.08,-46215
27.09,-46215
27.1,-46215
27.11,-46215
27.12,-46215
27.13,-46215
27.14,-46215
27.15,-46215
27.16,-46215
27.17,-46215
27.18,-46216
27.19,-46218
27.2,-46225
27.21,-46238
27.22,-46261
27.23,-46301
27.24,-46353
27.25,-46417
27.26,-46492
27.27,-46580
27.28,-46679
27.29,-46786
27.3,-46899
27.31,-47015
27.32,-47130
27.33,-47238
27.34,-47338
27.35,-47426
27.36,-47498
27.37,-47558
27.38,-47607
27.39,-47646
27.4,-47674
27.41,-47692
27.42,-47703
27.43,-47710
27.44,-47712
27.45,-47713
27.46,-47713
27.47,-47713
27.48,-47713
27.49,-47713
27.5,-47713
27.51,-47713
27.52,-47713
27.53,-47713
27.54,-47713
27.55,-47713
27.56,-47713
27.57,-47713
27.58,-47713
27.59,-47713
27.6,-47713
27.61,-47713
27.62,-47713
27.63,-47713
27.64,-47714
27.65,-47718
27.66,-47727
27.67,-47744
27.68,-47766
27.69,-47793
27.7,-47826
27.71,-47868
27.72,-47921
27.73,-47987
27.74,-48062
27.75,-48148
27.76,-48241
27.77,-48340
27.78,-48445
27.79,-48554
27.8,-48666
27.81,-48777
27.82,-48881
27.83,-48977
27.84,-49064
27.85,-49138
27.86,-49200
27.87,-49252
27.88,-49293
27.89,-49323
27.9,-49345
27.91,-49361
27.92,-49373
27.93,-49378
27.94,-49377
27.95,-49376
27.96,-49376
27.97,-49376
27.98,-49376
27.99,-49376
28,-49376
28.01,-49376
28.02,-49376
28.03,-49376
28.04,-49376
28.05,-49376
28.06,-49376
28.07,-49376
28.08,-49376
28.09,-49376
28.1,-49376
28.11,-49376
28.12,-49377
28.13,-49378
28.14,-49380
28.15,-49388
28.16,-49404
28.17,-49433
28.18,-49476
28.19,-49532
28.2,-49603
28.21,-49684
28.22,-49775
28.23,-49872
28.24,-49978
28.25,-50090
28.26,-50206
28.27,-50325
28.28,-50440
28.29,-50547
28.3,-50642
28.31,-50726
28.32,-50796
28.33,-50857
28.34,-50907
28.35,-50946
28.36,-50975
28.37,-50998
28.38,-51017
28.39,-51028
28.4,-51029
28.41,-51026
28.42,-51024
28.43,-51024
28.44,-51024
28.45,-51024
28.46,-51024
28.47,-51024
28.48,-51024
28.49,-51024
28.5,-51024
28.51,-51024
28.52,-51024
28.53,-51024
28.54,-51024
28.55,-51024
28.56,-51024
28.57,-51024
28.58,-51024
28.59,-51025
28.6,-51028
28.61,-51033
28.62,-51044
28.63,-51063
28.64,-51093
28.65,-51133
28.66,-51183
28.67,-51246
28.68,-51318
28.69,-51397
28.7,-51482
28.71,-51571
28.72,-51663
28.73,-51754
28.74,-51842
28.75,-51922
28.76,-51996
28.77,-52060
28.78,-52116
28.79,-52163
28.8,-52201
28.81,-52229
28.82,-52247
28.83,-52261
28.84,-52271
28.85,-52276
28.86,-52276
28.87,-52275
28.88,-52275
28.89,-52275
28.9,-52275
28.91,-52275
28.92,-52275
28.93,-52275
28.94,-52275
28.95,-52275
28.96,-52275
28.97,-52275
28.98,-52275
28.99,-52275
29,-52275
29.01,-52275
29.02,-52275
29.03,-52275
29.04,-52275
29.05,-52276
29.06,-52279
29.07,-52285
29.08,-52297
29.09,-52315
29.1,-52341
29.11,-52379
29.12,-52426
29.13,-52484
29.14,-52552
29.15,-52626
29.16,-52707
29.17,-52792
29.18,-52881
29.19,-52972
29.2,-53067
29.21,-53164
29.22,-53260
29.23,-53356
29.24,-53449
29.25,-53535
29.26,-53611
29.27,-53678
29.28,-53736
29.29,-53785
29.3,-53825
29.31,-53855
29.32,-53876
29.33,-53892
29.34,-53904
29.35,-53912
29.36,-53915
29.37,-53914
29.38,-53914
29.39,-53914
29.4,-53914
29.41,-53914
29.42,-53914
29.43,-53914
29.44,-53914
29.45,-53914
29.46,-53914
29.47,-53914
29.48,-53914
29.49,-53914
29.5,-53914
29.51,-53914
29.52,-53914
29.53,-53915
29.54,-53917
29.55,-53922
29.56,-53931
29.57,-53944
29.58,-53962
29.59,-53988
29.6,-54023
29.61,-54066
29.62,-54122
29.63,-54186
29.64,-54258
29.65,-54337
29.66,-54420
29.67,-54505
29.68,-54594
29.69,-54688
29.7,-54783
29.71,-54882
29.72,-54982
29.73,-55081
29.74,-55177
29.75,-55268
29.76,-55350
29.77,-55424
29.78,-55488
29.79,-55543
29.8,-55592
29.81,-55632
29.82,-55664
29.83,-55687
29.84,-55703
29.85,-55716
29.86,-55726
29.87,-55730
29.88,-55730
29.89,-55729
29.9,-55729
29.91,-55729
29.92,-55729
29.93,-55729
29.94,-55729
29.95,-55729
29.96,-55729
29.97,-55729
29.98,-55729
29.99,-55729
30,-55729
30.01,-55729
